<svg width="1030" height="1030" viewBox="0 0 1030 1030" fill="none" xmlns="http://www.w3.org/2000/svg">
<path fill-rule="evenodd" clip-rule="evenodd" d="M430.507 69.0679C435.194 75.6171 439.325 82.5106 442.875 89.6735C464.817 86.2589 487.26 84.3621 510.095 84.0938L528.4 24.3692C561.924 34.9573 590.6 57.3928 609.226 87.6058C610.552 89.757 611.821 91.9374 613.032 94.1448C825.916 138.959 985.731 327.846 985.731 554.061C985.731 813.635 775.305 1024.06 515.731 1024.06C256.158 1024.06 45.7314 813.635 45.7314 554.061C45.7314 363.715 158.883 199.798 321.593 125.904L357.111 14.9351C386.593 24.6595 412.286 43.6091 430.507 69.0679Z" fill="#020F1E"/>
<path fill-rule="evenodd" clip-rule="evenodd" d="M361.693 137.224C353.621 104.848 356.006 70.7487 368.505 39.812L434.428 66.4465C427.553 83.4617 426.242 102.217 430.681 120.023C433.596 131.713 438.892 142.601 446.164 152.039C445.312 152.381 444.461 152.727 443.613 153.078C422.311 161.902 402.448 173.763 384.628 188.259C374.072 172.84 366.269 155.576 361.693 137.224Z" fill="white"/>
<path fill-rule="evenodd" clip-rule="evenodd" d="M452.584 56.7599C480.603 78.7984 501.5 97 501.5 112C501.5 127 494.349 137.272 493.5 138C493.258 138.207 492.773 138.484 492.08 138.819C475.503 141.828 459.253 146.6 443.613 153.079C440.726 154.274 437.866 155.526 435.034 156.832C434.873 156.238 434.711 155.636 434.546 155.025C430.149 138.714 424.093 116.254 409.5 94.5C395.646 73.8489 380.212 59.3279 370.654 50.3357C366.352 46.2891 363.241 43.3621 362 41.5C361.437 40.6562 360.727 39.7037 359.948 38.6604C355.191 32.2855 347.907 22.5247 356.504 13.5094C366.508 3.01873 424.565 34.7213 452.584 56.7599Z" fill="url(#paint0_linear_902_1958)"/>
<path d="M576.903 238C576.903 241.794 576.776 245.559 576.527 249.291C547.087 214.933 529.303 170.294 529.303 121.5L529.303 121.241C558.751 151.352 576.903 192.556 576.903 238Z" fill="#5C23DB"/>
<path fill-rule="evenodd" clip-rule="evenodd" d="M603.91 352.147C634.487 315.735 652.903 268.768 652.903 217.5C652.903 138.458 609.13 69.6405 544.504 33.9648C535.862 61.7056 530.617 90.9445 529.257 121.195C558.733 151.309 576.903 192.533 576.903 238C576.903 257.983 573.393 277.147 566.956 294.908C577.402 315.24 589.803 334.402 603.91 352.147Z" fill="white"/>
<path d="M677.482 339.524C696.32 309.26 707.467 274.847 709.951 239.285C712.435 203.724 706.18 168.096 691.733 135.507C677.286 102.918 655.084 74.3585 627.065 52.3199C599.046 30.2813 540.99 -1.42121 530.986 9.06942C520.981 19.5601 532.481 31.0601 536.481 37.0601C540.481 43.0601 573.394 65.6158 593.481 95.5601C609.157 118.927 620.714 138.648 627.065 166.06C633.067 191.967 632.972 206.56 630.981 234.56C628.991 262.56 622.659 281.996 610.481 301.56L677.482 339.524Z" fill="url(#paint1_linear_902_1958)"/>
<path fill-rule="evenodd" clip-rule="evenodd" d="M339.049 796.719C340.758 873.342 386.778 939.033 452.495 969.179C435.904 966.703 419.631 963.258 403.734 958.901C439.475 968.742 477.122 974 516 974C748.512 974 937 785.959 937 554C937 390.155 842.957 248.222 705.784 178.994C709.944 198.73 711.366 219.018 709.951 239.285C708.22 264.063 702.283 288.284 692.47 310.932C767.971 365.491 817 454.125 817 554C817 719.416 682.507 854 516 854C449.812 854 388.683 832.734 339.049 796.719Z" fill="url(#paint2_linear_902_1958)"/>
<path d="M705.992 179.994C705.986 179.968 705.981 179.942 705.976 179.916C705.912 179.608 705.848 179.301 705.784 178.994C741.092 196.813 773.543 219.45 802.268 246.037C802.281 246.054 802.295 246.072 802.308 246.089C854.165 313.483 885 397.89 885 489.5C885 710.138 706.138 889 485.5 889C439.342 889 395.013 881.172 353.767 866.771C344.252 843.833 339 818.679 339 792.298C339 775.056 331.995 756.684 334.327 740.43C334.715 737.724 337.816 736.62 340.092 738.133C386.643 769.089 452.586 789 512 789C671.058 789 800 660.058 800 501C800 414.719 762.059 337.3 701.951 284.517C706.184 269.816 708.877 254.658 709.95 239.285C711.342 219.36 709.991 199.414 705.992 179.994Z" fill="url(#paint3_linear_902_1958)"/>
<path d="M344.681 754.045C346.611 743.898 339.251 734.701 329.126 732.663C228.507 712.42 145.406 643.769 105.158 552.047C102.91 546.924 95 548.203 95 553.798V553.798C95 764.518 250.18 938.993 452.495 969.179C385.518 938.455 339 870.809 339 792.298C339 778.224 342.074 767.75 344.681 754.045Z" fill="white"/>
<path fill-rule="evenodd" clip-rule="evenodd" d="M193.988 499.013C193.986 499.079 193.984 499.144 193.982 499.21C201.99 500.748 210.191 501.262 218.498 501.783C223.631 502.105 228.805 502.43 234 503C275 507.5 322.568 482.775 328.5 479C333.471 475.837 349.062 464.913 357.183 458.042C448.742 405.94 468.747 401 532.5 401C559.68 401 585.348 407.474 608.046 418.964C608.04 418.806 608.035 418.649 608.03 418.492C639.219 437.568 663.608 466.027 677.677 499.825C692.116 534.511 694.904 572.947 685.624 609.355C676.344 645.762 655.497 678.173 626.216 701.715C596.935 725.258 560.803 738.659 523.253 739.905C503.952 740.545 484.813 737.956 466.589 732.363C511.522 721.91 545 681.615 545 633.5C545 577.443 499.557 532 443.5 532C425.359 532 408.329 536.759 393.592 545.098L393.215 545.033C385.441 549.758 377.285 553.902 368.809 557.412C336.193 570.923 300.302 574.458 265.677 567.57C234.605 561.39 205.805 547.066 182.181 526.152C188.854 518.982 193.174 509.546 193.893 499.107L193.988 499.013Z" fill="white"/>
<path d="M206 485.25C206 481.836 205.327 478.455 204.021 475.3C202.714 472.146 200.799 469.28 198.385 466.865C195.97 464.451 193.104 462.536 189.95 461.229C186.795 459.923 183.414 459.25 180 459.25C176.586 459.25 173.205 459.923 170.05 461.229C166.896 462.536 164.03 464.451 161.615 466.865C159.201 469.28 157.286 472.146 155.979 475.3C154.673 478.455 154 481.836 154 485.25L180 485.25H206Z" fill="#972EF1"/>
<path fill-rule="evenodd" clip-rule="evenodd" d="M492.111 188.871C516.673 242.421 562.992 283.916 619.751 302.04C620.804 302.376 621.858 302.711 622.912 303.046C639.321 308.261 655.913 313.533 669.594 323.936C699.452 346.639 723.077 377.117 737.45 412.352C737.434 412.568 737.419 412.784 737.402 413H737.713C747.572 437.401 753 464.067 753 492C753 526.123 744.9 558.353 730.518 586.874C732.804 574.934 734 562.607 734 550C734 442.305 646.695 355 539 355C465.888 355 376.985 439.408 361.286 454.312L361.284 454.315C360.505 455.054 359.907 455.622 359.5 456C352.5 462.5 334 475.5 328.5 479C322.568 482.775 275 507.5 234 503C228.805 502.43 223.631 502.105 218.498 501.783C210.191 501.262 201.99 500.748 193.982 499.21C193.994 498.808 194 498.405 194 498C194 497.674 193.996 497.35 193.988 497.026C193.996 496.685 194 496.343 194 496C194 480.943 186.522 467.652 175.118 459.719C249.006 442.866 308.13 387.229 329.939 315.361C337.44 298.593 347.064 282.712 358.678 268.132C386.222 233.551 423.407 208.236 465.227 195.187C473.717 192.591 482.436 190.516 491.345 189C491.6 188.957 491.856 188.914 492.111 188.871ZM354 414C406.923 414 451.844 379.74 467.795 332.189C465.546 332.064 463.281 332 461 332C408.077 332 363.156 366.26 347.204 413.811C349.454 413.936 351.719 414 354 414Z" fill="url(#paint4_linear_902_1958)"/>
<path fill-rule="evenodd" clip-rule="evenodd" d="M412.762 398.652C392.211 415.369 373.892 436.01 355.5 459C448.5 406 468.358 401 532.5 401C559.68 401 585.348 407.474 608.046 418.964C608.016 418.146 608 417.325 608 416.5C608 400.369 613.922 385.621 623.71 374.311C598.092 361.936 569.356 355 539 355C495.983 355 462.644 365.514 434.193 383.271C427.658 389.146 420.474 394.313 412.762 398.652Z" fill="url(#paint5_linear_902_1958)"/>
<defs>
<linearGradient id="paint0_linear_902_1958" x1="317.5" y1="10" x2="317.5" y2="155.5" gradientUnits="userSpaceOnUse">
<stop stop-color="#F9B4B9"/>
<stop offset="0.25" stop-color="#F26DB7"/>
<stop offset="0.5" stop-color="#BE46EA"/>
<stop offset="0.75" stop-color="#8427FA"/>
<stop offset="1" stop-color="#4211C0"/>
</linearGradient>
<linearGradient id="paint1_linear_902_1958" x1="491.982" y1="5.56006" x2="491.982" y2="316.06" gradientUnits="userSpaceOnUse">
<stop stop-color="#F9B4B9"/>
<stop offset="0.25" stop-color="#F26DB7"/>
<stop offset="0.5" stop-color="#BE46EA"/>
<stop offset="0.75" stop-color="#8427FA"/>
<stop offset="1" stop-color="#4211C0"/>
</linearGradient>
<linearGradient id="paint2_linear_902_1958" x1="224.929" y1="175.551" x2="224.929" y2="917.902" gradientUnits="userSpaceOnUse">
<stop stop-color="#F9B4B9"/>
<stop offset="0.25" stop-color="#F26DB7"/>
<stop offset="0.5" stop-color="#BE46EA"/>
<stop offset="0.75" stop-color="#8427FA"/>
<stop offset="1" stop-color="#4211C0"/>
</linearGradient>
<linearGradient id="paint3_linear_902_1958" x1="234.794" y1="175.919" x2="234.794" y2="1048.5" gradientUnits="userSpaceOnUse">
<stop stop-color="#F9B4B9"/>
<stop offset="0.25" stop-color="#F26DB7"/>
<stop offset="0.5" stop-color="#BE46EA"/>
<stop offset="0.75" stop-color="#8427FA"/>
<stop offset="1" stop-color="#4211C0"/>
</linearGradient>
<linearGradient id="paint4_linear_902_1958" x1="336.5" y1="318.5" x2="753" y2="587" gradientUnits="userSpaceOnUse">
<stop stop-color="#F9B4B9"/>
<stop offset="0.25" stop-color="#F26DB7"/>
<stop offset="0.5" stop-color="#BE46EA"/>
<stop offset="0.75" stop-color="#8427FA"/>
<stop offset="1" stop-color="#4211C0"/>
</linearGradient>
<linearGradient id="paint5_linear_902_1958" x1="463" y1="300.5" x2="589" y2="419" gradientUnits="userSpaceOnUse">
<stop stop-color="#F9B4B9"/>
<stop offset="0.25" stop-color="#F26DB7"/>
<stop offset="0.5" stop-color="#BE46EA"/>
<stop offset="0.75" stop-color="#8427FA" stop-opacity="0.9"/>
<stop offset="1" stop-color="#4211C0" stop-opacity="0"/>
</linearGradient>
</defs>
</svg>
